ISSS608-VAA - Data Visualization Makeover 03
…
Filtering the Dataset

This section deals with limiting the data to the following criteria:

The year should be 2022

The flat_type should be only 3-ROOM, 4-ROOM and 5-ROOM

filter_flat_data <- filter(total_flat_data, grepl('2022', month) & flat_type %in% c("3 ROOM", "4 ROOM","5 ROOM"))

filter_flat_data

# A tibble: 24,374 × 11
   month   town    flat_…¹ block stree…² store…³ floor…⁴ flat_…⁵ lease…⁶ remai…⁷
   <chr>   <chr>   <chr>   <chr> <chr>   <chr>     <dbl> <chr>     <dbl> <chr>  
 1 2022-01 ANG MO… 3 ROOM  320   ANG MO… 07 TO …      73 New Ge…    1977 54 yea…
 2 2022-01 ANG MO… 3 ROOM  225   ANG MO… 07 TO …      67 New Ge…    1978 55 yea…
 3 2022-01 ANG MO… 3 ROOM  331   ANG MO… 07 TO …      68 New Ge…    1981 58 yea…
 4 2022-01 ANG MO… 3 ROOM  534   ANG MO… 07 TO …      82 New Ge…    1980 57 yea…
 5 2022-01 ANG MO… 3 ROOM  578   ANG MO… 04 TO …      67 New Ge…    1980 57 yea…
 6 2022-01 ANG MO… 3 ROOM  452   ANG MO… 01 TO …      83 New Ge…    1979 56 yea…
 7 2022-01 ANG MO… 3 ROOM  560   ANG MO… 01 TO …      67 New Ge…    1980 57 yea…
 8 2022-01 ANG MO… 3 ROOM  435   ANG MO… 04 TO …      67 New Ge…    1979 56 yea…
 9 2022-01 ANG MO… 3 ROOM  435   ANG MO… 04 TO …      67 New Ge…    1979 56 yea…
10 2022-01 ANG MO… 3 ROOM  560   ANG MO… 10 TO …      67 New Ge…    1980 57 yea…
# … with 24,364 more rows, 1 more variable: resale_price <dbl>, and abbreviated
#   variable names ¹​flat_type, ²​street_name, ³​storey_range, ⁴​floor_area_sqm,
#   ⁵​flat_model, ⁶​lease_commence_date, ⁷​remaining_lease
…
