ISSS608-VAA - Data Visualization Makeover 04
…
import_nation <- read_excel("data/Merchandise_Trade.xlsx", 
                          sheet = "T1",
                          range = cell_rows(10:129))%>%
  select(`Data Series`, contains(c("2019","2020", "2021", "2022"))) %>%
  slice(-c(1:7))%>%
  set_names(if_else(names(.) == "Data Series", "Country", names(.)))

import_nation$Country <- str_replace_all(import_nation$Country, "\\s*\\(.*?\\)", "")

import_nation

# A tibble: 112 × 49
   Country       2019 …¹ 2019 …² 2019 …³ 2019 …⁴ 2019 …⁵ 2019 …⁶ 2019 …⁷ 2019 …⁸
   <chr>           <dbl>   <dbl>   <dbl>   <dbl>   <dbl>   <dbl>   <dbl>   <dbl>
 1 Belgium        148564  112197  148895  109280  110542  140243  154637  220417
 2 Denmark         44062   53664  112559   59067   57022   53531   41769   89820
 3 France        1305861 1607039 1539927 1553172 1384504 1377160 1247644 1692436
 4 Germany, Fed… 1090801 1076037 1090588 1084790 1141855 1194530 1016793 1201604
 5 Greece          12161   14507    9397   12033   11920   12095   27007   12964
 6 Ireland         93080  111909   91189   72531   76235   93976   75391   79185
 7 Italy          547815  544113  499738  350214  451463  486021  420572  479798
 8 Luxembourg       2205   70742    4511    3546    3438    7249    9804    5269
 9 Netherlands    243929  382026  248639  262842  496961  298550  270901  510772
10 United Kingd… 1122876 1057533 1028921  961614 1044665  881698  852706  977237
# … with 102 more rows, 40 more variables: `2019 Apr` <dbl>, `2019 Mar` <dbl>,
#   `2019 Feb` <dbl>, `2019 Jan` <dbl>, `2020 Dec` <dbl>, `2020 Nov` <dbl>,
#   `2020 Oct` <dbl>, `2020 Sep` <dbl>, `2020 Aug` <dbl>, `2020 Jul` <dbl>,
#   `2020 Jun` <dbl>, `2020 May` <dbl>, `2020 Apr` <dbl>, `2020 Mar` <dbl>,
#   `2020 Feb` <dbl>, `2020 Jan` <dbl>, `2021 Dec` <dbl>, `2021 Nov` <dbl>,
#   `2021 Oct` <dbl>, `2021 Sep` <dbl>, `2021 Aug` <dbl>, `2021 Jul` <dbl>,
#   `2021 Jun` <dbl>, `2021 May` <dbl>, `2021 Apr` <dbl>, `2021 Mar` <dbl>, …

export_nation <- read_excel("data/Merchandise_Trade.xlsx", 
                          sheet = "T2",
                          range = cell_rows(10:101))%>%
  select(`Data Series`, contains(c("2019","2020", "2021", "2022"))) %>%
  slice(-c(1:7)) %>%
  set_names(if_else(names(.) == "Data Series", "Country", names(.)))

export_nation$Country <- str_replace_all(export_nation$Country, "\\s*\\(.*?\\)", "")

export_nation

# A tibble: 84 × 49
   Country       2019 …¹ 2019 …² 2019 …³ 2019 …⁴ 2019 …⁵ 2019 …⁶ 2019 …⁷ 2019 …⁸
   <chr>           <dbl>   <dbl>   <dbl>   <dbl>   <dbl>   <dbl>   <dbl>   <dbl>
 1 Belgium        498029  553449  635001  463503  338818  389853  318325 1380735
 2 Denmark         13039   11415   15446   12465   19571   21957   19587   27991
 3 France         415758  435599  429136  438494  429193  410138  360330  577736
 4 Germany, Fed…  601244  581154  718934  615005  637776  665181  596595  681759
 5 Greece          52483   89984  103260   70956   97643   99937  108931   99698
 6 Ireland         51855   37105   29955   18348   22930   48834   56440   46114
 7 Italy           60013   63034   75656   99466   75998   79456   76213  111059
 8 Luxembourg      12166   11691   10664    8097   15148   19069   13156   13103
 9 Netherlands    924561 1085006 1014106  761725  866614 1108801  934829 1110456
10 United Kingd…  371352  426137  805061  398734  683087  695876  351668  517108
# … with 74 more rows, 40 more variables: `2019 Apr` <dbl>, `2019 Mar` <dbl>,
#   `2019 Feb` <dbl>, `2019 Jan` <dbl>, `2020 Dec` <dbl>, `2020 Nov` <dbl>,
#   `2020 Oct` <dbl>, `2020 Sep` <dbl>, `2020 Aug` <dbl>, `2020 Jul` <dbl>,
#   `2020 Jun` <dbl>, `2020 May` <dbl>, `2020 Apr` <dbl>, `2020 Mar` <dbl>,
#   `2020 Feb` <dbl>, `2020 Jan` <dbl>, `2021 Dec` <dbl>, `2021 Nov` <dbl>,
#   `2021 Oct` <dbl>, `2021 Sep` <dbl>, `2021 Aug` <dbl>, `2021 Jul` <dbl>,
#   `2021 Jun` <dbl>, `2021 May` <dbl>, `2021 Apr` <dbl>, `2021 Mar` <dbl>, …
…
Pivoting Dataset

This section ensures that the datetime column labels are represented correctly. The dataset must be pivoted to reflect that.

imports_C_pivot <- import_continent %>%
  pivot_longer(
    cols = !"Country",
    names_to = "Month-Year",
    values_to = "Amount",
    values_drop_na = TRUE
  )

imports_C_pivot

# A tibble: 240 × 3
   Country `Month-Year` Amount
   <chr>   <chr>         <dbl>
 1 America 2019 Dec      5686.
 2 America 2019 Nov      6275.
 3 America 2019 Oct      5754.
 4 America 2019 Sep      5633.
 5 America 2019 Aug      6129.
 6 America 2019 Jul      5986.
 7 America 2019 Jun      5876.
 8 America 2019 May      5797.
 9 America 2019 Apr      6128 
10 America 2019 Mar      5529.
# … with 230 more rows

imports_N_pivot <- import_nation %>%
  pivot_longer(
    cols = !"Country",
    names_to = "Month-Year",
    values_to = "Amount",
    values_drop_na = TRUE
  )

imports_N_pivot

# A tibble: 5,376 × 3
   Country `Month-Year` Amount
   <chr>   <chr>         <dbl>
 1 Belgium 2019 Dec     148564
 2 Belgium 2019 Nov     112197
 3 Belgium 2019 Oct     148895
 4 Belgium 2019 Sep     109280
 5 Belgium 2019 Aug     110542
 6 Belgium 2019 Jul     140243
 7 Belgium 2019 Jun     154637
 8 Belgium 2019 May     220417
 9 Belgium 2019 Apr     134313
10 Belgium 2019 Mar     222413
# … with 5,366 more rows

exports_C_pivot <- export_continent %>%
  pivot_longer(
    cols = !"Country",
    names_to = "Month-Year",
    values_to = "Amount",
    values_drop_na = TRUE
  )

exports_C_pivot

# A tibble: 240 × 3
   Country `Month-Year` Amount
   <chr>   <chr>         <dbl>
 1 America 2019 Dec      4614.
 2 America 2019 Nov      4822.
 3 America 2019 Oct      4938.
 4 America 2019 Sep      4754.
 5 America 2019 Aug      4838.
 6 America 2019 Jul      5209.
 7 America 2019 Jun      4990.
 8 America 2019 May      5809.
 9 America 2019 Apr      5024.
10 America 2019 Mar      5281.
# … with 230 more rows

exports_N_pivot <- export_nation %>%
  pivot_longer(
    cols = !"Country",
    names_to = "Month-Year",
    values_to = "Amount",
    values_drop_na = TRUE
  )

exports_N_pivot

# A tibble: 4,032 × 3
   Country `Month-Year`  Amount
   <chr>   <chr>          <dbl>
 1 Belgium 2019 Dec      498029
 2 Belgium 2019 Nov      553449
 3 Belgium 2019 Oct      635001
 4 Belgium 2019 Sep      463503
 5 Belgium 2019 Aug      338818
 6 Belgium 2019 Jul      389853
 7 Belgium 2019 Jun      318325
 8 Belgium 2019 May     1380735
 9 Belgium 2019 Apr      277437
10 Belgium 2019 Mar      274500
# … with 4,022 more rows

Organizing Month-Year

This Section converts the “Month-Year” column to datetime.

imports_C_pivot$`Month-Year` <- as.Date(paste(imports_C_pivot$`Month-Year`, "01"), format = "%Y %b %d")

imports_C_pivot

# A tibble: 240 × 3
   Country `Month-Year` Amount
   <chr>   <date>        <dbl>
 1 America 2019-12-01    5686.
 2 America 2019-11-01    6275.
 3 America 2019-10-01    5754.
 4 America 2019-09-01    5633.
 5 America 2019-08-01    6129.
 6 America 2019-07-01    5986.
 7 America 2019-06-01    5876.
 8 America 2019-05-01    5797.
 9 America 2019-04-01    6128 
10 America 2019-03-01    5529.
# … with 230 more rows

imports_N_pivot$`Month-Year` <- as.Date(paste(imports_N_pivot$`Month-Year`, "01"), format = "%Y %b %d")

imports_N_pivot

# A tibble: 5,376 × 3
   Country `Month-Year` Amount
   <chr>   <date>        <dbl>
 1 Belgium 2019-12-01   148564
 2 Belgium 2019-11-01   112197
 3 Belgium 2019-10-01   148895
 4 Belgium 2019-09-01   109280
 5 Belgium 2019-08-01   110542
 6 Belgium 2019-07-01   140243
 7 Belgium 2019-06-01   154637
 8 Belgium 2019-05-01   220417
 9 Belgium 2019-04-01   134313
10 Belgium 2019-03-01   222413
# … with 5,366 more rows

exports_C_pivot$`Month-Year` <- as.Date(paste(exports_C_pivot$`Month-Year`, "01"), format = "%Y %b %d")

exports_C_pivot

# A tibble: 240 × 3
   Country `Month-Year` Amount
   <chr>   <date>        <dbl>
 1 America 2019-12-01    4614.
 2 America 2019-11-01    4822.
 3 America 2019-10-01    4938.
 4 America 2019-09-01    4754.
 5 America 2019-08-01    4838.
 6 America 2019-07-01    5209.
 7 America 2019-06-01    4990.
 8 America 2019-05-01    5809.
 9 America 2019-04-01    5024.
10 America 2019-03-01    5281.
# … with 230 more rows

exports_N_pivot$`Month-Year` <- as.Date(paste(exports_N_pivot$`Month-Year`, "01"), format = "%Y %b %d")

exports_N_pivot

# A tibble: 4,032 × 3
   Country `Month-Year`  Amount
   <chr>   <date>         <dbl>
 1 Belgium 2019-12-01    498029
 2 Belgium 2019-11-01    553449
 3 Belgium 2019-10-01    635001
 4 Belgium 2019-09-01    463503
 5 Belgium 2019-08-01    338818
 6 Belgium 2019-07-01    389853
 7 Belgium 2019-06-01    318325
 8 Belgium 2019-05-01   1380735
 9 Belgium 2019-04-01    277437
10 Belgium 2019-03-01    274500
# … with 4,022 more rows
…
